<svg width="21" height="20" viewBox="0 0 21 20" fill="none" xmlns="http://www.w3.org/2000/svg">
<path d="M10.96 0C5.43696 0 0.959961 4.477 0.959961 10C0.959961 15.523 5.43696 20 10.96 20C16.483 20 20.96 15.523 20.96 10C20.96 4.477 16.483 0 10.96 0ZM8.74902 6.07715C8.86852 6.07715 8.98861 6.10556 9.09961 6.16406L15.126 9.33691C15.3735 9.46691 15.5269 9.72148 15.5264 10.001C15.5264 10.2805 15.3735 10.5341 15.126 10.6641L9.09961 13.8359C8.98911 13.8939 8.86852 13.9229 8.74902 13.9229C8.61502 13.9229 8.4818 13.8865 8.3623 13.8145C8.1353 13.6775 8 13.4369 8 13.1719V6.82812C8 6.56313 8.1353 6.32255 8.3623 6.18555C8.4818 6.11305 8.61552 6.07715 8.74902 6.07715Z" fill="#6E7191"/>
</svg>
